…
``` r
t_result_df
```

    ## # A tibble: 35,000 × 4
    ##    true_mu  iter  mu_hat p_value
    ##      <int> <int>   <dbl>   <dbl>
    ##  1       0     1 -1.62    0.0545
    ##  2       0     2 -0.542   0.569 
    ##  3       0     3 -0.278   0.767 
    ##  4       0     4 -0.303   0.733 
    ##  5       0     5  0.406   0.637 
    ##  6       0     6  0.147   0.881 
    ##  7       0     7  1.20    0.191 
    ##  8       0     8 -0.0542  0.957 
    ##  9       0     9 -0.119   0.878 
    ## 10       0    10 -1.89    0.0712
    ## # ℹ 34,990 more rows
…
